MBA - 2026 - Dirección Financiera - MBA
…
                Copied!

price_data <- tq_get(tick,
                     from = '2021-01-01',
                     to = '2025-12-31',
                     get = 'stock.prices')
print(price_data)

price_data <- tq_get(tick,
                     from = '2021-01-01',
                     to = '2025-12-31',
                     get = 'stock.prices')
print(price_data)

# A tibble: 6,270 × 8
   symbol date        open  high   low close    volume adjusted
   <chr>  <date>     <dbl> <dbl> <dbl> <dbl>     <dbl>    <dbl>
 1 AAPL   2021-01-04  134.  134.  127.  129. 143301900     126.
 2 AAPL   2021-01-05  129.  132.  128.  131.  97664900     127.
 3 AAPL   2021-01-06  128.  131.  126.  127. 155088000     123.
 4 AAPL   2021-01-07  128.  132.  128.  131. 109578200     127.
 5 AAPL   2021-01-08  132.  133.  130.  132. 105158200     128.
 6 AAPL   2021-01-11  129.  130.  128.  129. 100384500     125.
 7 AAPL   2021-01-12  128.  130.  127.  129.  91951100     125.
 8 AAPL   2021-01-13  129.  131.  128.  131.  88636800     127.
 9 AAPL   2021-01-14  131.  131   129.  129.  90221800     125.
10 AAPL   2021-01-15  129.  130.  127   127. 111598500     124.
# ℹ 6,260 more rows
…
